…
``` r
# create data frame for the end of the animation
EmptyAnimateDataEnd <- tibble(
  created_at = seq(as_datetime("2018-06-10 03:00:00 UTC"),
                   as_datetime("2018-06-10 04:00:00 UTC"),
                   by = "min"),
                followers = 0,
                long = 0,
                lat = 0)
EmptyAnimateDataEnd
```

    # A tibble: 61 x 4
       created_at          followers  long   lat
       <dttm>                  <dbl> <dbl> <dbl>
     1 2018-06-10 03:00:00         0     0     0
     2 2018-06-10 03:01:00         0     0     0
     3 2018-06-10 03:02:00         0     0     0
     4 2018-06-10 03:03:00         0     0     0
     5 2018-06-10 03:04:00         0     0     0
     6 2018-06-10 03:05:00         0     0     0
     7 2018-06-10 03:06:00         0     0     0
     8 2018-06-10 03:07:00         0     0     0
     9 2018-06-10 03:08:00         0     0     0
    10 2018-06-10 03:09:00         0     0     0
    # ... with 51 more rows
…
